Bar, Bended Bar, and Treemap | Not So Formal
…
library(dplyr)
library(rvest)

url <- "https://en.wikipedia.org/wiki/List_of_S%26P_500_companies"

sp500 <- url %>% 
    read_html() %>% 
    # How do I select css? 
    html_node(css = "table.wikitable") %>% 
    html_table() %>% 
    mutate(sector = factor(`GICS Sector`)) %>% 
    as_tibble()
sp500

## # A tibble: 505 x 10
##    Symbol Security `SEC filings` `GICS Sector` `GICS Sub Indus… `Headquarters L…
##    <chr>  <chr>    <chr>         <chr>         <chr>            <chr>           
##  1 MMM    3M Comp… reports       Industrials   Industrial Cong… St. Paul, Minne…
##  2 ABT    Abbott … reports       Health Care   Health Care Equ… North Chicago, …
##  3 ABBV   AbbVie … reports       Health Care   Pharmaceuticals  North Chicago, …
##  4 ABMD   ABIOMED… reports       Health Care   Health Care Equ… Danvers, Massac…
##  5 ACN    Accentu… reports       Information … IT Consulting &… Dublin, Ireland 
##  6 ATVI   Activis… reports       Communicatio… Interactive Hom… Santa Monica, C…
##  7 ADBE   Adobe S… reports       Information … Application Sof… San Jose, Calif…
##  8 AMD    Advance… reports       Information … Semiconductors   Santa Clara, Ca…
##  9 AAP    Advance… reports       Consumer Dis… Automotive Reta… Raleigh, North …
## 10 AES    AES Corp reports       Utilities     Independent Pow… Arlington, Virg…
## # … with 495 more rows, and 4 more variables: `Date first added` <chr>,
## #   CIK <int>, Founded <chr>, sector <fct>
…
