…
Convert from vector to data frame.

# Convert to data frame
df <- info %>% matrix(ncol = 5, byrow = TRUE) %>% as.data.frame() %>% as_tibble()
# Assign names
names(df) <- c("company", "hq", "industry", "status", "yol")

df

## # A tibble: 50 x 5
##    company    hq                    industry      status  yol                   
##    <fct>      <fct>                 <fct>         <fct>   <fct>                 
##  1 Nvidia     "\n\t\t\tHeadquarter… Industry Int… Status… "Years on the List\n\…
##  2 SpaceX     "\n\t\t\tHeadquarter… Industry Tra… Status… "Years on the List\n\…
##  3 Amazon     "\n\t\t\tHeadquarter… Industry Con… Status… "Years on the List\n\…
##  4 23andMe    "\n\t\t\tHeadquarter… Industry Bio… Status… "Years on the List\n\…
##  5 Alphabet   "\n\t\t\tHeadquarter… Industry Con… Status… "Years on the List\n\…
##  6 iFlytek    "\n\t\t\tHeadquarter… Industry Int… Status… "Years on the List\n\…
##  7 Kite Phar… "\n\t\t\tHeadquarter… Industry Bio… Status… "Years on the List\n\…
##  8 Tencent    "\n\t\t\tHeadquarter… Industry Con… Status… "Years on the List\n\…
##  9 Regeneron  "\n\t\t\tHeadquarter… Industry Bio… Status… "Years on the List\n\…
## 10 Spark The… "\n\t\t\tHeadquarter… Industry Bio… Status… "Years on the List\n\…
## # … with 40 more rows

Clean up texts with stringr.

library(stringr)

df <- df %>%  
    mutate(hq = str_extract(hq, "[A-Z]+.*,.*[a-z]+")) %>% 
    mutate(yol = str_extract_all(yol, "[0-9]\\,?")) %>% 
    mutate(industry = str_replace(industry, "^\\w+\\s?", ""), 
           status = str_replace(status, "^\\w+\\s?", ""))

df

## # A tibble: 50 x 5
##    company           hq                      industry           status yol      
##    <fct>             <chr>                   <chr>              <chr>  <list>   
##  1 Nvidia            Santa Clara, California Intelligent machi… Public <chr [12…
##  2 SpaceX            Hawthorne, California   Transportation     Priva… <chr [28…
##  3 Amazon            Seattle, Washington     Connectivity       Public <chr [20…
##  4 23andMe           Mountain View, Califor… Biomedicine        Priva… <chr [8]>
##  5 Alphabet          Mountain View, Califor… Connectivity       Public <chr [32…
##  6 iFlytek           Hefei, China            Intelligent machi… Public <chr [4]>
##  7 Kite Pharma       Santa Monica, Californ… Biomedicine        Public <chr [4]>
##  8 Tencent           Shenzhen, China         Connectivity       Public <chr [20…
##  9 Regeneron         Tarrytown, New York     Biomedicine        Public <chr [4]>
## 10 Spark Therapeuti… Philadelphia, Pennsylv… Biomedicine        Public <chr [8]>
## # … with 40 more rows
…
