…
# filter values within (w) q1, q3
(w <- df %>% 
    filter(x >= quantile(x, probs = 0.25),
           x <= quantile(x, probs = 0.75),
           y >= quantile(y, probs = 0.25),
           y <= quantile(y, probs = 0.75)))

## # A tibble: 42 x 2
##        x     y
##    <dbl> <dbl>
##  1     8    11
##  2    11     9
##  3    11    10
##  4     9    10
##  5     9    11
##  6     8    10
##  7     9    10
##  8     8     9
##  9     8    10
## 10     8    11
## # … with 32 more rows
…
text_expression("y", "<=", .75)

## [1] "y <= quantile(y, probs = 0.75)"

Rlang

We use rlang to transform text into R expression.

custom_filter <- function(x, filter_expr) {
    expr <- parse_expr(filter_expr)
    df %>% filter(!!expr)
}
custom_filter(x, text_expression("x", ">=", .75))

## # A tibble: 32 x 2
##        x     y
##    <dbl> <dbl>
##  1    11     9
##  2    12    10
##  3    11     8
##  4    11    10
##  5    12    10
##  6    15    10
##  7    11    12
##  8    11     9
##  9    12    12
## 10    13     9
## # … with 22 more rows
…
## [1] "x >= quantile(x, probs = 0.25);x <= quantile(x, probs = 0.75);y >= quantile(y, probs = 0.25);y <= quantile(y, probs = 0.75)"

Apply Custom Filtering

# modify our custom filtering to fit multiple expressions
custom_filter = function(x, exprs) {
    # take note of the plurar form
    exprs_list <- parse_exprs(exprs)
    # apply on data frame
    x %>% filter(!!!exprs_list)
}
# thats it
(w2 <- df %>% custom_filter(exprs))

## # A tibble: 42 x 2
##        x     y
##    <dbl> <dbl>
##  1     8    11
##  2    11     9
##  3    11    10
##  4     9    10
##  5     9    11
##  6     8    10
##  7     9    10
##  8     8     9
##  9     8    10
## 10     8    11
## # … with 32 more rows
…
