…
res <- purrr::map(nn, ~ simulate_this(N = .x, fr = fr, trials = 10e3))

tidy_res <- res %>% 
  as.data.frame() %>% 
  set_names(nn) %>% 
  bind_cols(fraction = fr) %>% 
  gather(N, prob, -fraction) %>% 
  mutate(N = as.numeric(N)) %>% 
  as_tibble()
tidy_res

## # A tibble: 630 x 3
##    fraction     N  prob
##       <dbl> <dbl> <dbl>
##  1     0.1     12 0.535
##  2     0.12    12 0.540
##  3     0.14    12 0.554
##  4     0.16    12 0.554
##  5     0.18    12 0.551
##  6     0.2     12 0.555
##  7     0.22    12 0.567
##  8     0.24    12 0.564
##  9     0.26    12 0.572
## 10     0.28    12 0.572
## # … with 620 more rows
…
