…
            "financial_rank",
            "sustainalytics",
            "csrhub"
        ),
        sep = "\\|"
    ) |> 
    mutate(across(
        industry:csrhub,
        ~ str_remove(.x, pattern = "^[\\s]?[A-Za-z]*[\\s]?[A-Za-z]*[:]")
    )) |> 
    mutate(across(industry:csrhub, str_trim)) |> 
    select(-pic)
tbl

## # A tibble: 100 × 12
##    index first          last      company           industry              
##    <chr> <chr>          <chr>     <chr>             <chr>                 
##  1 1.    Jensen         Huang     NVIDIA            Information Technology
##  2 2.    Marc           Benioff*  Salesforce.com    Information Technology
##  3 3.    François-Henri Pinault   Kering            Consumer Goods        
##  4 4.    Richard        Templeton Texas Instruments Information Technology
##  5 5.    Ignacio        Galán     Iberdrola         Utilities             
##  6 6.    Shantanu       Narayen   Adobe             Information Technology
##  7 7.    Ajay           Banga     Mastercard        Information Technology
##  8 8.    Johan          Thijs     KBC               Financial Services    
##  9 9.    Satya          Nadella   Microsoft         Information Technology
## 10 10.   Bernard        Arnault   LVMH              Consumer Goods        
##    country       start_year insider mba   financial_rank sustainalytics csrhub
##    <chr>         <chr>      <chr>   <chr> <chr>          <chr>          <chr> 
##  1 United States 1993       YES     NO    4              101            179   
##  2 United States 2001       YES     NO    6              122            229   
##  3 France        2005       YES     YES   30             137            118   
##  4 United States 2004       YES     NO    56             59             135   
##  5 Spain         2001       NO      YES   87             26             43    
##  6 United States 2007       YES     YES   43             204            82    
##  7 United States 2010       YES     YES   13             166            284   
##  8 Belgium       2012       YES     NO    78             36             111   
##  9 United States 2014       YES     YES   86             99             13    
## 10 France        1989       NO      NO    7              337            154   
## # … with 90 more rows
